…
``` r
# View the cleaned data
NYC_Subway_Data
```

    ## # A tibble: 1,868 × 19
    ##    line     station_name station_latitude station_longitude route1 route2 route3
    ##    <chr>    <chr>                   <dbl>             <dbl> <chr>  <chr>  <chr> 
    ##  1 4 Avenue 25th St                  40.7             -74.0 R      <NA>   <NA>  
    ##  2 4 Avenue 25th St                  40.7             -74.0 R      <NA>   <NA>  
    ##  3 4 Avenue 36th St                  40.7             -74.0 N      R      <NA>  
    ##  4 4 Avenue 36th St                  40.7             -74.0 N      R      <NA>  
    ##  5 4 Avenue 36th St                  40.7             -74.0 N      R      <NA>  
    ##  6 4 Avenue 45th St                  40.6             -74.0 R      <NA>   <NA>  
    ##  7 4 Avenue 45th St                  40.6             -74.0 R      <NA>   <NA>  
    ##  8 4 Avenue 45th St                  40.6             -74.0 R      <NA>   <NA>  
    ##  9 4 Avenue 45th St                  40.6             -74.0 R      <NA>   <NA>  
    ## 10 4 Avenue 53rd St                  40.6             -74.0 R      <NA>   <NA>  
    ## # ℹ 1,858 more rows
    ## # ℹ 12 more variables: route4 <chr>, route5 <chr>, route6 <chr>, route7 <chr>,
    ## #   route8 <dbl>, route9 <dbl>, route10 <dbl>, route11 <dbl>, entry <lgl>,
    ## #   vending <chr>, entrance_type <chr>, ada <lgl>
…
## Step 3: Split the data into separate route number and route name variables.

``` r
NYC_Subway_Data_reformed = 
  NYC_Subway_Data %>%
  mutate(across(starts_with("route"), as.character)) %>%  # Ensure all route columns are characters
  pivot_longer(
    cols = starts_with("route"), # Specify the columns for the routes
    names_to = "route_number",
    values_to = "route") %>%
  drop_na(route)# Drop rows where route is NA
NYC_Subway_Data_reformed
```

    ## # A tibble: 4,270 × 10
    ##    line     station_name station_latitude station_longitude entry vending
    ##    <chr>    <chr>                   <dbl>             <dbl> <lgl> <chr>  
    ##  1 4 Avenue 25th St                  40.7             -74.0 TRUE  YES    
    ##  2 4 Avenue 25th St                  40.7             -74.0 TRUE  YES    
    ##  3 4 Avenue 36th St                  40.7             -74.0 TRUE  YES    
    ##  4 4 Avenue 36th St                  40.7             -74.0 TRUE  YES    
    ##  5 4 Avenue 36th St                  40.7             -74.0 TRUE  YES    
    ##  6 4 Avenue 36th St                  40.7             -74.0 TRUE  YES    
    ##  7 4 Avenue 36th St                  40.7             -74.0 TRUE  YES    
    ##  8 4 Avenue 36th St                  40.7             -74.0 TRUE  YES    
    ##  9 4 Avenue 45th St                  40.6             -74.0 TRUE  YES    
    ## 10 4 Avenue 45th St                  40.6             -74.0 TRUE  YES    
    ## # ℹ 4,260 more rows
    ## # ℹ 4 more variables: entrance_type <chr>, ada <lgl>, route_number <chr>,
    ## #   route <chr>
…
                            sheet = "Mr. Trash Wheel", 
                            skip = 1,  # Skip the first row (it is non-data or a note)
                            range = "A2:N653")  # Adjust the range based on the actual data layout
mr_trash_wheel_cleaned = mr_trash_wheel %>% # Omit rows which do not include dumpster-specific data
  filter(!is.na(Dumpster)) %>%  # Retain only the rows where the 'dumpster' column is not NA
  janitor::clean_names() %>%
  select(dumpster:homes_powered) %>% 
  mutate(sports_balls = round(sports_balls, 0)) %>% 
  mutate(sports_balls = as.integer(sports_balls)) %>% 
  mutate(year = as.numeric(year)) %>% 
  mutate(trash_wheel = "mr_trash")
mr_trash_wheel_cleaned
```

    ## # A tibble: 651 × 15
    ##    dumpster month  year date                weight_tons volume_cubic_yards
    ##       <dbl> <chr> <dbl> <dttm>                    <dbl>              <dbl>
    ##  1        1 May    2014 2014-05-16 00:00:00        4.31                 18
    ##  2        2 May    2014 2014-05-16 00:00:00        2.74                 13
    ##  3        3 May    2014 2014-05-16 00:00:00        3.45                 15
    ##  4        4 May    2014 2014-05-17 00:00:00        3.1                  15
    ##  5        5 May    2014 2014-05-17 00:00:00        4.06                 18
    ##  6        6 May    2014 2014-05-20 00:00:00        2.71                 13
    ##  7        7 May    2014 2014-05-21 00:00:00        1.91                  8
    ##  8        8 May    2014 2014-05-28 00:00:00        3.7                  16
    ##  9        9 June   2014 2014-06-05 00:00:00        2.52                 14
    ## 10       10 June   2014 2014-06-11 00:00:00        3.76                 18
    ## # ℹ 641 more rows
    ## # ℹ 9 more variables: plastic_bottles <dbl>, polystyrene <dbl>,
    ## #   cigarette_butts <dbl>, glass_bottles <dbl>, plastic_bags <dbl>,
    ## #   wrappers <dbl>, sports_balls <int>, homes_powered <dbl>, trash_wheel <chr>
…
``` r
prof_trash_wheel = 
  read_excel("./dataset/202409\ Trash\ Wheel\ Collection\ Data.xlsx",
             sheet = "Professor Trash Wheel",
             skip = 1,
             range = "A2:M121",) %>%
  janitor::clean_names() %>% 
  select(dumpster:homes_powered) %>%
  mutate(year = as.numeric(year)) %>% 
  mutate(trash_wheel = "pro_trash")

prof_trash_wheel 
```

    ## # A tibble: 119 × 14
    ##    dumpster month     year date                weight_tons volume_cubic_yards
    ##       <dbl> <chr>    <dbl> <dttm>                    <dbl>              <dbl>
    ##  1        1 January   2017 2017-01-02 00:00:00        1.79                 15
    ##  2        2 January   2017 2017-01-30 00:00:00        1.58                 15
    ##  3        3 February  2017 2017-02-26 00:00:00        2.32                 18
    ##  4        4 February  2017 2017-02-26 00:00:00        3.72                 15
    ##  5        5 February  2017 2017-02-28 00:00:00        1.45                 15
    ##  6        6 March     2017 2017-03-30 00:00:00        1.71                 15
    ##  7        7 April     2017 2017-04-01 00:00:00        1.82                 15
    ##  8        8 April     2017 2017-04-20 00:00:00        2.37                 15
    ##  9        9 May       2017 2017-05-10 00:00:00        2.64                 15
    ## 10       10 May       2017 2017-05-26 00:00:00        2.78                 15
    ## # ℹ 109 more rows
    ## # ℹ 8 more variables: plastic_bottles <dbl>, polystyrene <dbl>,
    ## #   cigarette_butts <dbl>, glass_bottles <dbl>, plastic_bags <dbl>,
    ## #   wrappers <dbl>, homes_powered <dbl>, trash_wheel <chr>
…
``` r
gwynnda_df = 
  read_excel("./dataset/202409\ Trash\ Wheel\ Collection\ Data.xlsx", 
             sheet = "Gwynnda Trash Wheel",
             skip = 1,
             range = "A2:L265", ) %>% 
  janitor::clean_names() %>% 
  select(dumpster:homes_powered) %>%
  mutate(trash_wheel = "gwynnda_trash") %>% 
  mutate(year = as.numeric(year))
gwynnda_df
```

    ## # A tibble: 263 × 13
    ##    dumpster month   year date                weight_tons volume_cubic_yards
    ##       <dbl> <chr>  <dbl> <dttm>                    <dbl>              <dbl>
    ##  1        1 July    2021 2021-07-03 00:00:00        0.93                 15
    ##  2        2 July    2021 2021-07-07 00:00:00        2.26                 15
    ##  3        3 July    2021 2021-07-07 00:00:00        1.62                 15
    ##  4        4 July    2021 2021-07-16 00:00:00        1.76                 15
    ##  5        5 July    2021 2021-07-30 00:00:00        1.53                 15
    ##  6        6 August  2021 2021-08-11 00:00:00        2.06                 15
    ##  7        7 August  2021 2021-08-14 00:00:00        1.9                  15
    ##  8        8 August  2021 2021-08-16 00:00:00        2.16                 15
    ##  9        9 August  2021 2021-08-16 00:00:00        2.6                  15
    ## 10       10 August  2021 2021-08-17 00:00:00        3.21                 15
    ## # ℹ 253 more rows
    ## # ℹ 7 more variables: plastic_bottles <dbl>, polystyrene <dbl>,
    ## #   cigarette_butts <dbl>, plastic_bags <dbl>, wrappers <dbl>,
    ## #   homes_powered <dbl>, trash_wheel <chr>

## Step 4: Combine the datasets

``` r
combined_trash_wheel_data = bind_rows(mr_trash_wheel_cleaned,
                                       prof_trash_wheel,
                                       gwynnda_df)
combined_trash_wheel_data
```

    ## # A tibble: 1,033 × 15
    ##    dumpster month  year date                weight_tons volume_cubic_yards
    ##       <dbl> <chr> <dbl> <dttm>                    <dbl>              <dbl>
    ##  1        1 May    2014 2014-05-16 00:00:00        4.31                 18
    ##  2        2 May    2014 2014-05-16 00:00:00        2.74                 13
    ##  3        3 May    2014 2014-05-16 00:00:00        3.45                 15
    ##  4        4 May    2014 2014-05-17 00:00:00        3.1                  15
    ##  5        5 May    2014 2014-05-17 00:00:00        4.06                 18
    ##  6        6 May    2014 2014-05-20 00:00:00        2.71                 13
    ##  7        7 May    2014 2014-05-21 00:00:00        1.91                  8
    ##  8        8 May    2014 2014-05-28 00:00:00        3.7                  16
    ##  9        9 June   2014 2014-06-05 00:00:00        2.52                 14
    ## 10       10 June   2014 2014-06-11 00:00:00        3.76                 18
    ## # ℹ 1,023 more rows
    ## # ℹ 9 more variables: plastic_bottles <dbl>, polystyrene <dbl>,
    ## #   cigarette_butts <dbl>, glass_bottles <dbl>, plastic_bags <dbl>,
    ## #   wrappers <dbl>, sports_balls <int>, homes_powered <dbl>, trash_wheel <chr>
…
# View unmatched rows (if any)
unmatched_bakes
```

    ## # A tibble: 0 × 5
    ## # ℹ 5 variables: series <dbl>, episode <dbl>, baker <chr>,
    ## #   signature_bake <chr>, show_stopper <chr>

``` r
unmatched_results
```

    ## # A tibble: 1,136 × 5
    ##    series episode baker     technical result
    ##     <dbl>   <dbl> <chr>         <dbl> <chr> 
    ##  1      1       1 Annetha           2 IN    
    ##  2      1       1 David             3 IN    
    ##  3      1       1 Edd               1 IN    
    ##  4      1       1 Jasminder        NA IN    
    ##  5      1       1 Jonathan          9 IN    
    ##  6      1       1 Louise           NA IN    
    ##  7      1       1 Miranda           8 IN    
    ##  8      1       1 Ruth             NA IN    
    ##  9      1       1 Lea              10 OUT   
    ## 10      1       1 Mark             NA OUT   
    ## # ℹ 1,126 more rows

``` r
unmatched_bakers
```

    ## # A tibble: 120 × 7
    ##    first_name last_name   series baker_age baker_occupation       hometown baker
    ##    <chr>      <chr>        <dbl>     <dbl> <chr>                  <chr>    <chr>
    ##  1 Ali        Imdad            4        25 Charity worker         Saltley… Ali …
    ##  2 Alice      Fevronia        10        28 Geography teacher      Essex    Alic…
    ##  3 Alvin      Magallanes       6        37 Nurse                  Brackne… Alvi…
    ##  4 Amelia     LeBruin         10        24 Fashion designer       Halifax  Amel…
    ##  5 Andrew     Smyth            7        25 Aerospace engineer     Derby /… Andr…
    ##  6 Annetha    Mills            1        30 Midwife                Essex    Anne…
    ##  7 Antony     Amourdoux        9        30 Banker                 London   Anto…
    ##  8 Beca       Lyne-Pirkis      4        31 Military Wives' Choir… Aldersh… Beca…
    ##  9 Ben        Frazer           2        31 Graphic Designer       Northam… Ben …
    ## 10 Benjamina  Ebuehi           7        23 Teaching assistant     South L… Benj…
    ## # ℹ 110 more rows
…
After standardizing the names (for example, renaming “Joanne” to “Jo”),
we will recheck the datasets to confirm that no mismatches remain
between the bakes_df, results_df, and bakers_df datasets.

``` r
# Recheck for any unmatched rows after correcting the names
unmatched_bakes = anti_join(bakes_df, bakers_df, by = c("baker", "series"))
unmatched_results = anti_join(results_df, bakers_df, by = c("baker", "series"))
unmatched_bakers = anti_join(bakers_df, results_df, by = c("baker", "series"))

# Display unmatched rows (if any exist)
unmatched_bakes
```

    ## # A tibble: 548 × 5
    ##    series episode baker     signature_bake                          show_stopper
    ##     <dbl>   <dbl> <chr>     <chr>                                   <chr>       
    ##  1      1       1 Annetha   "Light Jamaican Black Cakewith Strawbe… Red, White …
    ##  2      1       1 David     "Chocolate Orange Cake"                 Black Fores…
    ##  3      1       1 Edd       "Caramel Cinnamon and Banana Cake"      N/A         
    ##  4      1       1 Jasminder "Fresh Mango and Passion Fruit Humming… N/A         
    ##  5      1       1 Jonathan  "Carrot Cake with Lime and Cream Chees… Three Tiere…
    ##  6      1       1 Lea       "Cranberry and Pistachio Cakewith Oran… Raspberries…
    ##  7      1       1 Louise    "Carrot and Orange Cake"                Never Fail …
    ##  8      1       1 Mark      "Sticky Marmalade Tea Loaf"             Heart-shape…
    ##  9      1       1 Miranda   "Triple Layered Brownie Meringue Cake\… Three Tiere…
    ## 10      1       1 Ruth      "Three Tiered Lemon Drizzle Cakewith F… Classic Cho…
    ## # ℹ 538 more rows

``` r
unmatched_results
```

    ## # A tibble: 1,136 × 5
    ##    series episode baker     technical result
    ##     <dbl>   <dbl> <chr>         <dbl> <chr> 
    ##  1      1       1 Annetha           2 IN    
    ##  2      1       1 David             3 IN    
    ##  3      1       1 Edd               1 IN    
    ##  4      1       1 Jasminder        NA IN    
    ##  5      1       1 Jonathan          9 IN    
    ##  6      1       1 Louise           NA IN    
    ##  7      1       1 Miranda           8 IN    
    ##  8      1       1 Ruth             NA IN    
    ##  9      1       1 Lea              10 OUT   
    ## 10      1       1 Mark             NA OUT   
    ## # ℹ 1,126 more rows

``` r
unmatched_bakers
```

    ## # A tibble: 120 × 7
    ##    first_name last_name   series baker_age baker_occupation       hometown baker
    ##    <chr>      <chr>        <dbl>     <dbl> <chr>                  <chr>    <chr>
    ##  1 Ali        Imdad            4        25 Charity worker         Saltley… Ali …
    ##  2 Alice      Fevronia        10        28 Geography teacher      Essex    Alic…
    ##  3 Alvin      Magallanes       6        37 Nurse                  Brackne… Alvi…
    ##  4 Amelia     LeBruin         10        24 Fashion designer       Halifax  Amel…
    ##  5 Andrew     Smyth            7        25 Aerospace engineer     Derby /… Andr…
    ##  6 Annetha    Mills            1        30 Midwife                Essex    Anne…
    ##  7 Antony     Amourdoux        9        30 Banker                 London   Anto…
    ##  8 Beca       Lyne-Pirkis      4        31 Military Wives' Choir… Aldersh… Beca…
    ##  9 Ben        Frazer           2        31 Graphic Designer       Northam… Ben …
    ## 10 Benjamina  Ebuehi           7        23 Teaching assistant     South L… Benj…
    ## # ℹ 110 more rows
…
